[{
	"title" : "Campus 1",
	"subtitle" : "South Carolina",
	"filename" : "",
    "thumbnail":"img1",
    "type" : "image"
},
{
	"title" : "Campus 2",
	"subtitle" : "South Carolina",
	"filename" : "",
    "thumbnail":"img2",
    "type" : "image"
},
{
	"title" : "Campus 3",
	"subtitle" : "South Carolina",
	"filename" : "",
    "thumbnail":"img3",
    "type" : "image"
},
{
	"title" : "Campus 4",
	"subtitle" : "South Carolina",
	"filename" : "",
    "thumbnail":"img1",
    "type" : "image"
},
{
	"title" : "Campus 5",
	"subtitle" : "South Carolina",
	"filename" : "",
    "thumbnail":"img2",
    "type" : "image"
}
]
