[{
	
	"title" : "VR Videos 1",
	"subtitle" : "South Carolina Videos",
	"thumbnail" : "img3",
	"filename" : "vrenglish",
    "type" : "videos"
},
{
	"title" : "VR Videos 1",
	"subtitle" : "South Carolina Videos",
	"thumbnail" : "img2",
	"filename" : "vrenglish",
    "type" : "videos"
}]
